Network Analysis of Emotions - Will Hipson
…
In this month’s post, I set out to create a visual network of emotions. Emotion Dynamics tells us that different emotions are highly interconnected, such that one emotion morphs into another and so on. I’ll be using a large dataset from an original study published in PLOS ONE by Trampe, Quoidbach, and Taquet (2015). Thanks to Google Dataset Search, I was able to locate this data. The data is collected from 11,000 participants who completed daily questionnaires on the emotions they felt at a given moment. The original paper is fascinating and I highly encourage checking it out - not to mention that the author’s analysis is the inspiration for this post. The raw data can be freely accessed from the author’s OSF page (link in online article) - props to them for publishing the data!

What is a network? In a sentence, a network is a complex set of interrelations between variables. Some terminology: nodes are the variables (in this case, emotions), and edges are the relationships between the variables. Networks can be directed, which means that variables are linked in a sequence (e.g, from emotion A to emotion B), or undirected, which just shows the relationships. Trampe et al. (2015) created an undirected network in their paper, but the data also allows for a directed network - and this is what I’m going to make for this post.

First, I’ll read in the data and fix up a few spelling errors from the original dataset.

library(tidyverse)

emotion_raw <- read_csv("https://osf.io/e7uab/download") %>%
  rename(Offense = Ofense,
         Embarrassment = Embarassment)

emotion_raw

## # A tibble: 69,544 x 21
##       id Hours   Day Pride  Love  Hope Gratitude   Joy Satisfaction   Awe
##    <dbl> <dbl> <dbl> <dbl> <dbl> <dbl>     <dbl> <dbl>        <dbl> <dbl>
##  1     1     1     3     0     0     0         0     0            0     0
##  2     1    14     1     0     0     0         0     0            0     0
##  3     1    14     2     0     0     0         0     0            0     0
##  4     1    14     4     0     0     0         0     0            0     0
##  5     1    15     3     0     0     0         0     0            0     0
##  6     1    15     3     0     0     0         0     0            0     0
##  7     1    19     1     0     0     0         0     0            0     0
##  8     8     8     5     0     0     0         0     1            0     0
##  9     8     9     2     0     0     0         0     1            0     0
## 10     8    10     7     0     0     0         0     0            0     0
## # … with 69,534 more rows, and 11 more variables: Amusement <dbl>,
## #   Alertness <dbl>, Anxiety <dbl>, Disdain <dbl>, Offense <dbl>, Guilt <dbl>,
## #   Disgust <dbl>, Fear <dbl>, Embarrassment <dbl>, Sadness <dbl>, Anger <dbl>

The data is formatted as a sparse matrix (lots of zeros). We have participant id, Day, and Hour that the emotion was reported. To make this data network compatible, I need to wrangle it into a dataframe of edges - that is a from column and a to column. This will become more apparent shortly.

I can use the function gather to turn the data into long format. By filtering for values of 1, I remove all the zeros from the sparse matrix and I’m left with a column that includes the emotion that was experienced at the time of reporting.

emotion_long <- emotion_raw %>%
  gather(emotion_type, value, Pride:Anger) %>%
  arrange(id, Day) %>%
  filter(value == 1) %>%
  select(-value)

emotion_long

## # A tibble: 187,426 x 4
##       id Hours   Day emotion_type 
##    <dbl> <dbl> <dbl> <chr>        
##  1     1    19     1 Offense      
##  2     1    19     1 Sadness      
##  3     1    14     2 Disgust      
##  4     1    15     3 Alertness    
##  5     1    15     3 Anxiety      
##  6     1    15     3 Embarrassment
##  7     1    15     3 Sadness      
##  8     1    14     4 Alertness    
##  9     1    14     4 Embarrassment
## 10     8     9     2 Joy          
## # … with 187,416 more rows

Still, there are no edges here - no link between one emotion and the next. Because the data is arranged so that each subsequent row is the next emotion, I can create a new variable, second_emotion, that is the lead of the emotion in that row. Then, I make sure to remove the last row from each participant id (otherwise there would be a relationship between Participant #1’s last emotion and Participant #2’s first emotion).

emotion_edges <- emotion_long %>%
  mutate(second_emotion = lead(emotion_type)) %>%
  rename(first_emotion = emotion_type) %>%
  select(id, Day, Hours, first_emotion, second_emotion) %>%
  group_by(id) %>%
  slice(-length(id))

emotion_edges

## # A tibble: 175,480 x 5
## # Groups:   id [11,332]
##       id   Day Hours first_emotion second_emotion
##    <dbl> <dbl> <dbl> <chr>         <chr>         
##  1     1     1    19 Offense       Sadness       
##  2     1     1    19 Sadness       Disgust       
##  3     1     2    14 Disgust       Alertness     
##  4     1     3    15 Alertness     Anxiety       
##  5     1     3    15 Anxiety       Embarrassment 
##  6     1     3    15 Embarrassment Sadness       
##  7     1     3    15 Sadness       Alertness     
##  8     1     4    14 Alertness     Embarrassment 
##  9     8     2     9 Joy           Alertness     
## 10     8     2     9 Alertness     Alertness     
## # … with 175,470 more rows
…
We now have an object containing our nodes and an object containing our edges. Now it’s a matter of weighting (counting) the relationships between the emotions.

emotion_network <- emotion_edges %>%
  group_by(first_emotion, second_emotion) %>%
  summarize(weight = n()) %>%
  ungroup() %>%
  select(first_emotion, second_emotion, weight)

## `summarise()` has grouped output by 'first_emotion'. You can override using the `.groups` argument.

emotion_network

## # A tibble: 315 x 3
##    first_emotion second_emotion weight
##    <chr>         <chr>           <int>
##  1 Alertness     Alertness        6191
##  2 Alertness     Amusement          97
##  3 Alertness     Anger             214
##  4 Alertness     Anxiety          4784
##  5 Alertness     Awe                14
##  6 Alertness     Disdain            82
##  7 Alertness     Disgust           544
##  8 Alertness     Embarrassment     208
##  9 Alertness     Fear              109
## 10 Alertness     Gratitude          70
## # … with 305 more rows
A few more modifications are needed to make it ready for visualization. I’m trimming some of the really high values using ifelse, just so that they don’t overwhelm the plotting screen.

edges <- emotion_network %>%
  left_join(emotion_nodes, by = c("first_emotion" = "label")) %>%
  rename(from = id)

edges <- edges %>%
  left_join(emotion_nodes, by = c("second_emotion" = "label")) %>%
  rename(to = id) %>%
  select(from, to, weight) %>%
  mutate(weight = ifelse(weight > 4500, 4500, weight))

edges

## # A tibble: 315 x 3
##     from    to weight
##    <int> <int>  <dbl>
##  1     1     1   4500
##  2     1     2     97
##  3     1     3    214
##  4     1     4   4500
##  5     1     5     14
##  6     1     6     82
##  7     1     7    544
##  8     1     8    208
##  9     1     9    109
## 10     1    10     70
## # … with 305 more rows
…
