Bayesian Linear Mixed Models: Random Intercepts, Slopes, and Missing Data | Will Hipson
…
The data is available on GitHub here in a .sav format. You’ll need the haven package to read it into R. Make sure you import it from your working directory or specify the path to your downloads folder.

library(haven)

The dataset was curated by Patrick Curran for the purpose of demonstrating different approaches for handling multilevel, longitudinal data (see here for more info). The dataset consists of 405 children in the first two years of elementary school measured over four assessment points on reading recognition and antisocial behaviour. As well, it included time invariant covariates, such as emotional support and cognitive stimulation. For this post, we’ll focus on reading and cognitive stimulation, and we’ll use Bayesian Linear Mixed Models to address a number of questions about children’s reading ability.

For now, we’ll omit assessment periods with missing data, but we’ll return to the issue of missing data at the end of this demonstration.

curran_dat <- read_sav("CurranLong.sav") %>%
  select(id, occasion, read, homecog) %>%
  filter(complete.cases(.))

curran_dat

## # A tibble: 1,325 x 4
##       id occasion  read homecog
##    <dbl>    <dbl> <dbl>   <dbl>
##  1    22        0   2.1      13
##  2    22        1   3.9      13
##  3    34        0   2.1       9
##  4    34        1   2.9       9
##  5    34        2   4.5       9
##  6    34        3   4.5       9
##  7    58        0   2.3       9
##  8    58        1   4.5       9
##  9    58        2   4.2       9
## 10    58        3   4.6       9
## # ... with 1,315 more rows
…
