Building a Shiny App for Cycling in Ottawa - Will Hipson
…
Click here to go the app.

library(tidyverse)
library(leaflet)
library(leafpop)

We’ll start by reading in the data from the GitHub repositiory. There’s a lot of missing data, so much that R gets confused about the data structure of some of the columns. We need to add another argument to read_csv telling it the type of data in each column. The col_types argument takes a letter for each column, with ? meaning that we let R decide what the data is and n meaning ‘numeric’.

bikes <- read_csv("https://raw.githubusercontent.com/whipson/Ottawa_Bicycles/master/bikes_app.csv", col_types = c("?nnnnnnnnnnnnnn"))

bikes

## # A tibble: 3,560 x 15
##    date                alexandra_bridge eastern_canal ottawa_river western_canal
##    <dttm>                         <dbl>         <dbl>        <dbl>         <dbl>
##  1 2010-01-01 00:00:00                0             0            0            NA
##  2 2010-01-02 00:00:00                0             0            0            NA
##  3 2010-01-03 00:00:00                0             0            0            NA
##  4 2010-01-04 00:00:00                0             0            0            NA
##  5 2010-01-05 00:00:00                0             0            0            NA
##  6 2010-01-06 00:00:00                0             0            0            NA
##  7 2010-01-07 00:00:00                0             0            0            NA
##  8 2010-01-08 00:00:00                0             0            0            NA
##  9 2010-01-09 00:00:00                0             0            0            NA
## 10 2010-01-10 00:00:00                0             0            0            NA
## # … with 3,550 more rows, and 10 more variables: laurier_bay <dbl>,
## #   laurier_lyon <dbl>, laurier_metcalfe <dbl>, somerset_bridge <dbl>,
## #   otrain_young <dbl>, otrain_gladstone <dbl>, otrain_bayview <dbl>,
## #   portage_bridge <dbl>, adawe_crossing_a <dbl>, adawe_crossing_b <dbl>

Each row is a day and the columns are bicycle counters spread across the city. Let’s start by creating the graphs we want in the Shiny app. It’s easier to do this outside of the Shiny framework first. We’ll start by plotting total bicycle counts over time.

bikes_total <- bikes %>%
  pivot_longer(names_to = "counter", values_to = "count", -date) %>%
  group_by(date) %>%
  mutate(daily_total = sum(count, na.rm = TRUE))

bikes_total

## # A tibble: 49,840 x 4
## # Groups:   date [3,560]
##    date                counter          count daily_total
##    <dttm>              <chr>            <dbl>       <dbl>
##  1 2010-01-01 00:00:00 alexandra_bridge     0           0
##  2 2010-01-01 00:00:00 eastern_canal        0           0
##  3 2010-01-01 00:00:00 ottawa_river         0           0
##  4 2010-01-01 00:00:00 western_canal       NA           0
##  5 2010-01-01 00:00:00 laurier_bay         NA           0
##  6 2010-01-01 00:00:00 laurier_lyon        NA           0
##  7 2010-01-01 00:00:00 laurier_metcalfe    NA           0
##  8 2010-01-01 00:00:00 somerset_bridge     NA           0
##  9 2010-01-01 00:00:00 otrain_young        NA           0
## 10 2010-01-01 00:00:00 otrain_gladstone    NA           0
## # … with 49,830 more rows
…
